sim/cpu.vcd
$date
	Sun Jun 14 16:58:54 2026
$end
$version
	Icarus Verilog
$end
$timescale
	1s
$end
$scope module CPU_tb $end
$var reg 1 ! clk $end
$var reg 1 " rst $end
$var integer 32 # cycle [31:0] $end
$scope module cpu $end
$var wire 1 ! clk $end
$var wire 1 $ flush_ID_EX_combined $end
$var wire 1 % flush_branch $end
$var wire 32 & next_pc [31:0] $end
$var wire 1 " rst $end
$var wire 1 ' zero_flag_MEM $end
$var wire 1 ( zero_flag_EX $end
$var wire 32 ) write_data [31:0] $end
$var wire 32 * store_data_EX [31:0] $end
$var wire 1 + stall $end
$var wire 5 , rs2_EX [4:0] $end
$var wire 5 - rs2 [4:0] $end
$var wire 5 . rs1_EX [4:0] $end
$var wire 5 / rs1 [4:0] $end
$var wire 32 0 read_data_WB [31:0] $end
$var wire 32 1 read_data_MEM [31:0] $end
$var wire 5 2 rd_WB [4:0] $end
$var wire 5 3 rd_MEM [4:0] $end
$var wire 5 4 rd_EX [4:0] $end
$var wire 5 5 rd [4:0] $end
$var wire 32 6 pc_plus_4_WB [31:0] $end
$var wire 32 7 pc_plus_4_MEM [31:0] $end
$var wire 32 8 pc_plus_4_EX [31:0] $end
$var wire 7 9 opcode [6:0] $end
$var wire 32 : jump_target_MEM [31:0] $end
$var wire 32 ; jump_target_EX [31:0] $end
$var wire 32 < instruction_IF [31:0] $end
$var wire 32 = instruction_ID [31:0] $end
$var wire 32 > imm_extended [31:0] $end
$var wire 20 ? imm_U [19:0] $end
$var wire 12 @ imm_S [11:0] $end
$var wire 20 A imm_J [19:0] $end
$var wire 12 B imm_I [11:0] $end
$var wire 32 C imm_EX [31:0] $end
$var wire 12 D imm_B [11:0] $end
$var wire 7 E funct7_EX [6:0] $end
$var wire 7 F funct7 [6:0] $end
$var wire 3 G funct3_MEM [2:0] $end
$var wire 3 H funct3_EX [2:0] $end
$var wire 3 I funct3 [2:0] $end
$var wire 1 J flush_ID_EX $end
$var wire 32 K branch_target_MEM [31:0] $end
$var wire 32 L branch_target_EX [31:0] $end
$var wire 1 M branch_taken $end
$var wire 32 N branch_next_pc [31:0] $end
$var wire 1 O RegWriteW $end
$var wire 1 P RegWriteM $end
$var wire 1 Q RegWriteE $end
$var wire 1 R RegWriteD $end
$var wire 32 S RD2_MEM [31:0] $end
$var wire 32 T RD2_EX [31:0] $end
$var wire 32 U RD2 [31:0] $end
$var wire 32 V RD1_EX [31:0] $end
$var wire 32 W RD1 [31:0] $end
$var wire 32 X PC_ID [31:0] $end
$var wire 32 Y PC_EX [31:0] $end
$var wire 32 Z PC [31:0] $end
$var wire 1 [ MemtoRegW $end
$var wire 1 \ MemtoRegM $end
$var wire 1 ] MemtoRegE $end
$var wire 1 ^ MemtoRegD $end
$var wire 1 _ MemWriteM $end
$var wire 1 ` MemWriteE $end
$var wire 1 a MemWriteD $end
$var wire 1 b MemReadM $end
$var wire 1 c MemReadE $end
$var wire 1 d MemReadD $end
$var wire 1 e LUIE $end
$var wire 1 f LUID $end
$var wire 1 g JumpW $end
$var wire 1 h JumpM $end
$var wire 1 i JumpE $end
$var wire 1 j JumpD $end
$var wire 1 k JALRM $end
$var wire 1 l JALRE $end
$var wire 1 m JALRD $end
$var wire 3 n ImmSrcE [2:0] $end
$var wire 3 o ImmSrcD [2:0] $end
$var wire 2 p ForwardBE [1:0] $end
$var wire 2 q ForwardAE [1:0] $end
$var wire 1 r BranchM $end
$var wire 1 s BranchE $end
$var wire 1 t BranchD $end
$var wire 1 u AUIPCE $end
$var wire 1 v AUIPCD $end
$var wire 32 w ALU_result_WB [31:0] $end
$var wire 32 x ALU_result_MEM [31:0] $end
$var wire 32 y ALU_result_EX [31:0] $end
$var wire 1 z ALUSrcE $end
$var wire 1 { ALUSrcD $end
$var wire 2 | ALUOpE [1:0] $end
$var wire 2 } ALUOpD [1:0] $end
$var wire 4 ~ ALUControl [3:0] $end
$scope module alu_ctrl $end
$var wire 7 !" funct7 [6:0] $end
$var wire 3 "" funct3 [2:0] $end
$var wire 2 #" ALUOp [1:0] $end
$var reg 4 $" ALUControl [3:0] $end
$upscope $end
$scope module branch_ctrl $end
$var wire 1 %" take_branch $end
$var wire 1 ' zero_flag $end
$var wire 32 &" pc_plus_4 [31:0] $end
$var wire 32 '" jump_target [31:0] $end
$var wire 3 (" funct3 [2:0] $end
$var wire 32 )" branch_target [31:0] $end
$var wire 1 h JumpM $end
$var wire 1 k JALRM $end
$var wire 1 r BranchM $end
$var wire 32 *" ALU_result [31:0] $end
$var reg 1 +" branch_cond $end
$var reg 1 M branch_taken $end
$var reg 32 ," next_pc [31:0] $end
$upscope $end
$scope module conflict_ctrl $end
$var wire 5 -" rs2_E [4:0] $end
$var wire 5 ." rs2_D [4:0] $end
$var wire 5 /" rs1_E [4:0] $end
$var wire 5 0" rs1_D [4:0] $end
$var wire 5 1" rd_W [4:0] $end
$var wire 5 2" rd_M [4:0] $end
$var wire 5 3" rd_E [4:0] $end
$var wire 1 O RegWriteW $end
$var wire 1 P RegWriteM $end
$var wire 1 c MemReadE $end
$var reg 2 4" ForwardAE [1:0] $end
$var reg 2 5" ForwardBE [1:0] $end
$var reg 1 J flush $end
$var reg 1 + stall $end
$upscope $end
$scope module ctrl_unit $end
$var wire 7 6" opcode [6:0] $end
$var wire 3 7" funct3 [2:0] $end
$var reg 2 8" ALUOp [1:0] $end
$var reg 1 { ALUSrc $end
$var reg 1 v AUIPC $end
$var reg 1 t Branch $end
$var reg 3 9" ImmSrc [2:0] $end
$var reg 1 m JALR $end
$var reg 1 j Jump $end
$var reg 1 f LUI $end
$var reg 1 d MemRead $end
$var reg 1 a MemWrite $end
$var reg 1 ^ MemtoReg $end
$var reg 1 R RegWrite $end
$upscope $end
$scope module ex_mem_latch $end
$var wire 1 ! clk $end
$var wire 1 " rst $end
$var wire 1 ( zero_flag $end
$var wire 5 :" rd_E [4:0] $end
$var wire 32 ;" pc_plus_4 [31:0] $end
$var wire 32 <" jump_target [31:0] $end
$var wire 3 =" funct3 [2:0] $end
$var wire 32 >" branch_target [31:0] $end
$var wire 1 Q RegWriteE $end
$var wire 32 ?" RD2_E [31:0] $end
$var wire 1 ] MemtoRegE $end
$var wire 1 ` MemWriteE $end
$var wire 1 c MemReadE $end
$var wire 1 i JumpE $end
$var wire 1 l JALRE $end
$var wire 1 s BranchE $end
$var wire 32 @" ALU_result [31:0] $end
$var reg 32 A" ALU_result_out [31:0] $end
$var reg 1 r BranchM $end
$var reg 1 k JALRM $end
$var reg 1 h JumpM $end
$var reg 1 b MemReadM $end
$var reg 1 _ MemWriteM $end
$var reg 1 \ MemtoRegM $end
$var reg 32 B" RD2_out [31:0] $end
$var reg 1 P RegWriteM $end
$var reg 32 C" branch_target_out [31:0] $end
$var reg 3 D" funct3_out [2:0] $end
$var reg 32 E" jump_target_out [31:0] $end
$var reg 32 F" pc_plus_4_out [31:0] $end
$var reg 5 G" rd_out [4:0] $end
$var reg 1 ' zero_flag_out $end
$upscope $end
$scope module ex_stage $end
$var wire 4 H" ALUControl [3:0] $end
$var wire 32 I" ALU_result_M [31:0] $end
$var wire 2 J" ForwardAE [1:0] $end
$var wire 2 K" ForwardBE [1:0] $end
$var wire 1 ! clk $end
$var wire 1 " rst $end
$var wire 32 L" store_data [31:0] $end
$var wire 1 ( zero_flag $end
$var wire 32 M" write_data_W [31:0] $end
$var wire 32 N" pc_plus_4 [31:0] $end
$var wire 32 O" jump_target [31:0] $end
$var wire 32 P" imm [31:0] $end
$var wire 32 Q" branch_target [31:0] $end
$var wire 32 R" SrcB_nomux [31:0] $end
$var wire 32 S" SrcB [31:0] $end
$var wire 32 T" SrcA_fwd [31:0] $end
$var wire 32 U" SrcA [31:0] $end
$var wire 32 V" RD2 [31:0] $end
$var wire 32 W" RD1 [31:0] $end
$var wire 32 X" PC [31:0] $end
$var wire 1 e LUI $end
$var wire 1 u AUIPC $end
$var wire 32 Y" ALU_result [31:0] $end
$var wire 1 z ALUSrc $end
$scope module alu_unit $end
$var wire 4 Z" ALUControlE [3:0] $end
$var wire 32 [" SrcAE [31:0] $end
$var wire 32 \" SrcBE [31:0] $end
$var wire 1 ! clk $end
$var wire 1 " rst $end
$var reg 32 ]" ALUResultE [31:0] $end
$upscope $end
$scope module mux_A $end
$var wire 32 ^" in2 [31:0] $end
$var wire 2 _" sel [1:0] $end
$var wire 32 `" out [31:0] $end
$var wire 32 a" in1 [31:0] $end
$var wire 32 b" in0 [31:0] $end
$upscope $end
$scope module mux_B $end
$var wire 32 c" in2 [31:0] $end
$var wire 2 d" sel [1:0] $end
$var wire 32 e" out [31:0] $end
$var wire 32 f" in1 [31:0] $end
$var wire 32 g" in0 [31:0] $end
$upscope $end
$upscope $end
$scope module id_decode $end
$var wire 5 h" rs2 [4:0] $end
$var wire 5 i" rs1 [4:0] $end
$var wire 5 j" rd [4:0] $end
$var wire 7 k" opcode [6:0] $end
$var wire 32 l" instruction [31:0] $end
$var wire 20 m" imm_U [19:0] $end
$var wire 12 n" imm_S [11:0] $end
$var wire 20 o" imm_J [19:0] $end
$var wire 12 p" imm_I [11:0] $end
$var wire 12 q" imm_B [11:0] $end
$var wire 7 r" funct7 [6:0] $end
$var wire 3 s" funct3 [2:0] $end
$upscope $end
$scope module id_ex_latch $end
$var wire 2 t" ALUOpD [1:0] $end
$var wire 1 { ALUSrcD $end
$var wire 1 v AUIPCD $end
$var wire 1 t BranchD $end
$var wire 3 u" ImmSrcD [2:0] $end
$var wire 1 m JALRD $end
$var wire 1 j JumpD $end
$var wire 1 f LUID $end
$var wire 1 d MemReadD $end
$var wire 1 a MemWriteD $end
$var wire 1 ^ MemtoRegD $end
$var wire 1 R RegWriteD $end
$var wire 1 ! clk $end
$var wire 1 $ flush $end
$var wire 3 v" funct3 [2:0] $end
$var wire 7 w" funct7 [6:0] $end
$var wire 5 x" rd [4:0] $end
$var wire 5 y" rs1 [4:0] $end
$var wire 5 z" rs2 [4:0] $end
$var wire 1 " rst $end
$var wire 32 {" sign_ext_imm [31:0] $end
$var wire 32 |" RD2 [31:0] $end
$var wire 32 }" RD1 [31:0] $end
$var wire 32 ~" PC_in [31:0] $end
$var reg 2 !# ALUOpE [1:0] $end
$var reg 1 z ALUSrcE $end
$var reg 1 u AUIPCE $end
$var reg 1 s BranchE $end
$var reg 3 "# ImmSrcE [2:0] $end
$var reg 1 l JALRE $end
$var reg 1 i JumpE $end
$var reg 1 e LUIE $end
$var reg 1 c MemReadE $end
$var reg 1 ` MemWriteE $end
$var reg 1 ] MemtoRegE $end
$var reg 32 ## PC_out [31:0] $end
$var reg 32 $# RD1_out [31:0] $end
$var reg 32 %# RD2_out [31:0] $end
$var reg 1 Q RegWriteE $end
$var reg 3 &# funct3_out [2:0] $end
$var reg 7 '# funct7_out [6:0] $end
$var reg 32 (# imm_out [31:0] $end
$var reg 5 )# rd_out [4:0] $end
$var reg 5 *# rs1_out [4:0] $end
$var reg 5 +# rs2_out [4:0] $end
$upscope $end
$scope module if_id_latch $end
$var wire 1 ! clk $end
$var wire 1 % flush $end
$var wire 1 " rst $end
$var wire 1 + stall $end
$var wire 32 ,# instruction_in [31:0] $end
$var wire 32 -# PC_in [31:0] $end
$var reg 32 .# PC_out [31:0] $end
$var reg 32 /# instruction_out [31:0] $end
$upscope $end
$scope module if_module $end
$var wire 1 ! clk $end
$var wire 1 " rst $end
$var wire 1 0# we $end
$var wire 32 1# write_data [31:0] $end
$var wire 32 2# pc [31:0] $end
$var reg 1 3# file_loaded $end
$var reg 1024 4# hexfile_path [1023:0] $end
$var reg 32 5# instruction [31:0] $end
$var integer 32 6# i [31:0] $end
$upscope $end
$scope module mem_stage $end
$var wire 32 7# ALU_result [31:0] $end
$var wire 1 b MemReadM $end
$var wire 1 _ MemWriteM $end
$var wire 32 8# RD2 [31:0] $end
$var wire 1 ! clk $end
$var wire 1 " rst $end
$var wire 32 9# read_data [31:0] $end
$scope module data_mem_unit $end
$var wire 32 :# alu_result [31:0] $end
$var wire 1 ! clk $end
$var wire 1 " rst $end
$var wire 1 _ we $end
$var wire 32 ;# write_data [31:0] $end
$var reg 32 <# read_data [31:0] $end
$var integer 32 =# i [31:0] $end
$upscope $end
$upscope $end
$scope module mem_wb_latch $end
$var wire 32 ># ALU_result [31:0] $end
$var wire 1 h JumpM $end
$var wire 1 \ MemtoRegM $end
$var wire 1 P RegWriteM $end
$var wire 1 ! clk $end
$var wire 32 ?# pc_plus_4 [31:0] $end
$var wire 5 @# rd [4:0] $end
$var wire 32 A# read_data [31:0] $end
$var wire 1 " rst $end
$var reg 32 B# ALU_result_out [31:0] $end
$var reg 1 g JumpW $end
$var reg 1 [ MemtoRegW $end
$var reg 1 O RegWriteW $end
$var reg 32 C# pc_plus_4_out [31:0] $end
$var reg 5 D# rd_out [4:0] $end
$var reg 32 E# read_data_out [31:0] $end
$upscope $end
$scope module pc_module $end
$var wire 1 ! clk $end
$var wire 32 F# next_pc [31:0] $end
$var wire 1 " rst $end
$var reg 32 G# pc [31:0] $end
$upscope $end
$scope module reg_file $end
$var wire 32 H# ALU_result [31:0] $end
$var wire 1 I# ForwardingA $end
$var wire 1 J# ForwardingB $end
$var wire 1 ! clk $end
$var wire 5 K# rd [4:0] $end
$var wire 5 L# rs1 [4:0] $end
$var wire 5 M# rs2 [4:0] $end
$var wire 1 " rst $end
$var wire 1 O we3 $end
$var wire 32 N# write_data [31:0] $end
$var reg 32 O# read_data1 [31:0] $end
$var reg 32 P# read_data2 [31:0] $end
$var integer 32 Q# i [31:0] $end
$upscope $end
$scope module sign_ext $end
$var wire 3 R# ImmSrc [2:0] $end
$var wire 12 S# imm_B [11:0] $end
$var wire 12 T# imm_I [11:0] $end
$var wire 20 U# imm_J [19:0] $end
$var wire 12 V# imm_S [11:0] $end
$var wire 20 W# imm_U [19:0] $end
$var reg 32 X# imm_32 [31:0] $end
$upscope $end
$scope module wb_stage $end
$var wire 1 g Jump $end
$var wire 1 [ MemtoReg $end
$var wire 32 Y# alu_result [31:0] $end
$var wire 32 Z# pc_plus_4 [31:0] $end
$var wire 32 [# read_data [31:0] $end
$var wire 32 \# write_data [31:0] $end
$upscope $end
$upscope $end
$upscope $end
$enddefinitions $end
#0
$dumpvars
b0 \#
b0 [#
b0 Z#
b0 Y#
b0 X#
b0 W#
b0 V#
b0 U#
b0 T#
b0 S#
b0 R#
b100000 Q#
bx P#
bx O#
b0 N#
b0 M#
b0 L#
b0 K#
0J#
0I#
b0 H#
b0 G#
b0 F#
b0 E#
b0 D#
b0 C#
b0 B#
b0 A#
b0 @#
b0 ?#
b0 >#
b100000000 =#
b0 <#
b0 ;#
b0 :#
b0 9#
b0 8#
b0 7#
b100000000 6#
b0 5#
b11101000110010101110011011101000111001100101111011010000110010101111000001011110111000001110010011011110110011101110010011000010110110100101110011010000110010101111000 4#
13#
b0 2#
b0 1#
00#
b0 /#
b0 .#
b0 -#
b0 ,#
b0 +#
b0 *#
b0 )#
b0 (#
b0 '#
b0 &#
b0 %#
b0 $#
b0 ##
b0 "#
b0 !#
b0 ~"
bx }"
bx |"
b0 {"
b0 z"
b0 y"
b0 x"
b0 w"
b0 v"
b0 u"
b0 t"
b0 s"
b0 r"
b0 q"
b0 p"
b0 o"
b0 n"
b0 m"
b0 l"
b0 k"
b0 j"
b0 i"
b0 h"
b0 g"
b0 f"
b0 e"
b0 d"
b0 c"
b0 b"
b0 a"
b0 `"
b0 _"
b0 ^"
b0 ]"
b0 \"
b0 ["
b0 Z"
b0 Y"
b0 X"
b0 W"
b0 V"
b0 U"
b0 T"
b0 S"
b0 R"
b0 Q"
b0 P"
b0 O"
b100 N"
b0 M"
b0 L"
b0 K"
b0 J"
b0 I"
b0 H"
b0 G"
b0 F"
b0 E"
b0 D"
b0 C"
b0 B"
b0 A"
b0 @"
b0 ?"
b0 >"
b0 ="
b0 <"
b100 ;"
b0 :"
b0 9"
b0 8"
b0 7"
b0 6"
b0 5"
b0 4"
b0 3"
b0 2"
b0 1"
b0 0"
b0 /"
b0 ."
b0 -"
b0 ,"
0+"
b0 *"
b0 )"
b0 ("
b0 '"
b0 &"
0%"
b0 $"
b0 #"
b0 ""
b0 !"
b0 ~
b0 }
b0 |
0{
0z
b0 y
b0 x
b0 w
0v
0u
0t
0s
0r
b0 q
b0 p
b0 o
b0 n
0m
0l
0k
0j
0i
0h
0g
0f
0e
0d
0c
0b
0a
0`
0_
0^
0]
0\
0[
b0 Z
b0 Y
b0 X
bx W
b0 V
bx U
b0 T
b0 S
0R
0Q
0P
0O
b0 N
0M
b0 L
b0 K
0J
b0 I
b0 H
b0 G
b0 F
b0 E
b0 D
b0 C
b0 B
b0 A
b0 @
b0 ?
b0 >
b0 =
b0 <
b0 ;
b0 :
b0 9
b100 8
b0 7
b0 6
b0 5
b0 4
b0 3
b0 2
b0 1
b0 0
b0 /
b0 .
b0 -
b0 ,
0+
b0 *
b0 )
1(
0'
b0 &
0%
0$
b0 #
1"
0!
$end
#5
b100000 Q#
b0 U
b0 |"
b0 P#
b0 W
b0 }"
b0 O#
1!
#10
0!
#15
1+"
b100 &
b100 F#
b100 N
b100 ,"
b101000000000000010010011 <
b101000000000000010010011 ,#
b101000000000000010010011 5#
1'
b100 7
b100 &"
b100 F"
b100 ?#
b1 #
1!
0"
#20
0!
#25
b1010 >
b1010 {"
b1010 X#
1{
b10 }
b10 8"
b10 t"
1R
b101 A
b101 o"
b101 U#
b101000000000 ?
b101000000000 m"
b101000000000 W#
b10000000000 D
b10000000000 q"
b10000000000 S#
b1 @
b1 n"
b1 V#
b1010 B
b1010 p"
b1010 T#
b1010 -
b1010 ."
b1010 h"
b1010 z"
b1010 M#
b1 5
b1 j"
b1 x"
b10011 9
b10011 6"
b10011 k"
b100 6
b100 C#
b100 Z#
b101000000000000010010011 =
b101000000000000010010011 l"
b101000000000000010010011 /#
b100 Z
b100 -#
b100 2#
b100 G#
b10 #
1!
#30
0!
#35
0(
b1010 y
b1010 @"
b1010 Y"
b1010 ]"
b1010 S"
b1010 \"
b101000001000000100010011 <
b101000001000000100010011 ,#
b101000001000000100010011 5#
b100 X
b100 ~"
b100 .#
b1 4
b1 3"
b1 :"
b1 )#
b1010 ,
b1010 -"
b1010 +#
b1010 ;
b1010 <"
b1010 O"
b1010 L
b1010 >"
b1010 Q"
b1010 C
b1010 P"
b1010 (#
1z
b10 |
b10 #"
b10 !#
1Q
b11 #
1!
#40
0!
#45
0+"
b100000000000101 A
b100000000000101 o"
b100000000000101 U#
b101000001000 ?
b101000001000 m"
b101000001000 W#
b1 D
b1 q"
b1 S#
b10 @
b10 n"
b10 V#
b1 /
b1 0"
b1 i"
b1 y"
b1 L#
b10 5
b10 j"
b10 x"
0'
b1010 :
b1010 '"
b1010 E"
b1010 K
b1010 )"
b1010 C"
b1 3
b1 2"
b1 G"
b1 @#
b1010 x
b1010 *"
b1010 A"
b1010 I"
b1010 ^"
b1010 c"
b1010 7#
b1010 :#
b1010 >#
1P
b1000 8
b1000 ;"
b1000 N"
b1110 ;
b1110 <"
b1110 O"
b1110 L
b1110 >"
b1110 Q"
b100 Y
b100 X"
b100 ##
b101000001000000100010011 =
b101000001000000100010011 l"
b101000001000000100010011 /#
b100 #
1!
#50
0!
#55
b10100 y
b10100 @"
b10100 Y"
b10100 ]"
b1010 U"
b1010 ["
b1010 T"
b1010 `"
b1010 )
b1010 M"
b1010 a"
b1010 f"
b1010 N#
b1010 \#
b1000 &
b1000 F#
b1000 N
b1000 ,"
b10 q
b10 4"
b10 J"
b10 _"
b10 4
b10 3"
b10 :"
b10 )#
b1 .
b1 /"
b1 *#
b1000 7
b1000 &"
b1000 F"
b1000 ?#
b1110 :
b1110 '"
b1110 E"
b1110 K
b1110 )"
b1110 C"
b1 2
b1 1"
b1 D#
b1 K#
b1010 w
b1010 B#
b1010 Y#
1O
b101 #
1!
#60
0!
#65
b1 q
b1 4"
b1 J"
b1 _"
b1000 6
b1000 C#
b1000 Z#
b10 3
b10 2"
b10 G"
b10 @#
b10100 x
b10100 *"
b10100 A"
b10100 I"
b10100 ^"
b10100 c"
b10100 7#
b10100 :#
b10100 >#
b1000 Z
b1000 -#
b1000 2#
b1000 G#
b110 #
1!
#70
0!
#75
b10100 )
b10100 M"
b10100 a"
b10100 f"
b10100 N#
b10100 \#
b0 q
b0 4"
b0 J"
b0 _"
b1000000010000000100011 <
b1000000010000000100011 ,#
b1000000010000000100011 5#
b1000 X
b1000 ~"
b1000 .#
b1010 V
b1010 W"
b1010 b"
b1010 $#
b10 2
b10 1"
b10 D#
b10 K#
b10100 w
b10100 B#
b10100 Y#
b1010 W
b1010 }"
b1010 O#
b111 #
1!
#80
0!
#85
b0 >
b0 {"
b0 X#
b1 o
b1 9"
b1 u"
b1 R#
1a
1{
b0 }
b0 8"
b0 t"
0R
b1000000000001 A
b1000000000001 o"
b1000000000001 U#
b1000000010 ?
b1000000010 m"
b1000000010 W#
b0 D
b0 q"
b0 S#
b0 @
b0 n"
b0 V#
b10 B
b10 p"
b10 T#
b10 -
b10 ."
b10 h"
b10 z"
b10 M#
b0 /
b0 0"
b0 i"
b0 y"
b0 L#
b10 I
b10 7"
b10 s"
b10 v"
b0 5
b0 j"
b0 x"
b100011 9
b100011 6"
b100011 k"
b1100 8
b1100 ;"
b1100 N"
b10010 ;
b10010 <"
b10010 O"
b10010 L
b10010 >"
b10010 Q"
b1000 Y
b1000 X"
b1000 ##
b1000000010000000100011 =
b1000000010000000100011 l"
b1000000010000000100011 /#
b1000 #
1!
#90
0!
#95
1(
b0 y
b0 @"
b0 Y"
b0 ]"
b0 U"
b0 ["
b10 p
b10 5"
b10 K"
b10 d"
b0 S"
b0 \"
b10100 *
b10100 ?"
b10100 L"
b10100 R"
b10100 e"
b0 T"
b0 `"
b1100 &
b1100 F#
b1100 N
b1100 ,"
b10 H
b10 ""
b10 ="
b10 &#
b0 4
b0 3"
b0 :"
b0 )#
b10 ,
b10 -"
b10 +#
b0 .
b0 /"
b0 *#
b1000 ;
b1000 <"
b1000 O"
b1000 L
b1000 >"
b1000 Q"
b0 C
b0 P"
b0 (#
b10100 T
b10100 V"
b10100 g"
b10100 %#
b0 V
b0 W"
b0 b"
b0 $#
b1 n
b1 "#
b0 |
b0 #"
b0 !#
1`
0Q
b1100 7
b1100 &"
b1100 F"
b1100 ?#
b10010 :
b10010 '"
b10010 E"
b10010 K
b10010 )"
b10010 C"
b10100 U
b10100 |"
b10100 P#
b0 W
b0 }"
b0 O#
b1001 #
1!
#100
0!
#105
b1 p
b1 5"
b1 K"
b1 d"
b1100 6
b1100 C#
b1100 Z#
b10 G
b10 ("
b10 D"
1'
b1000 :
b1000 '"
b1000 E"
b1000 K
b1000 )"
b1000 C"
b0 3
b0 2"
b0 G"
b0 @#
b10100 S
b10100 B"
b10100 8#
b10100 ;#
b0 x
b0 *"
b0 A"
b0 I"
b0 ^"
b0 c"
b0 7#
b0 :#
b0 >#
1_
0P
b1100 Z
b1100 -#
b1100 2#
b1100 G#
b1010 #
1!
#110
0!
#115
b0 )
b0 M"
b0 a"
b0 f"
b0 N#
b0 \#
b10100 1
b10100 9#
b10100 <#
b10100 A#
b0 p
b0 5"
b0 K"
b0 d"
b10000110000011 <
b10000110000011 ,#
b10000110000011 5#
b1100 X
b1100 ~"
b1100 .#
b0 2
b0 1"
b0 D#
b0 K#
b0 w
b0 B#
b0 Y#
0O
b1011 #
1!
#120
0!
#125
1d
1^
1R
b0 o
b0 9"
b0 u"
b0 R#
1{
0a
b1000000000000 A
b1000000000000 o"
b1000000000000 U#
b10 ?
b10 m"
b10 W#
b10000000001 D
b10000000001 q"
b10000000001 S#
b11 @
b11 n"
b11 V#
b0 B
b0 p"
b0 T#
b0 -
b0 ."
b0 h"
b0 z"
b0 M#
b11 5
b11 j"
b11 x"
b11 9
b11 6"
b11 k"
b10100 0
b10100 E#
b10100 [#
b10000 8
b10000 ;"
b10000 N"
b1100 ;
b1100 <"
b1100 O"
b1100 L
b1100 >"
b1100 Q"
b1100 Y
b1100 X"
b1100 ##
b10000110000011 =
b10000110000011 l"
b10000110000011 /#
b1100 #
1!
#130
0!
#135
b0 *
b0 ?"
b0 L"
b0 R"
b0 e"
b10000 &
b10000 F#
b10000 N
b10000 ,"
b11 4
b11 3"
b11 :"
b11 )#
b0 ,
b0 -"
b0 +#
b0 T
b0 V"
b0 g"
b0 %#
b0 n
b0 "#
1c
0`
1]
1Q
b10000 7
b10000 &"
b10000 F"
b10000 ?#
b1100 :
b1100 '"
b1100 E"
b1100 K
b1100 )"
b1100 C"
b0 U
b0 |"
b0 P#
b1101 #
1!
#140
0!
#145
b10000 6
b10000 C#
b10000 Z#
b11 3
b11 2"
b11 G"
b11 @#
b0 S
b0 B"
b0 8#
b0 ;#
1b
0_
1\
1P
b10000 Z
b10000 -#
b10000 2#
b10000 G#
b1110 #
1!
#150
0!
#155
b10100 )
b10100 M"
b10100 a"
b10100 f"
b10100 N#
b10100 \#
b1100010000001000110011 <
b1100010000001000110011 ,#
b1100010000001000110011 5#
b10000 X
b10000 ~"
b10000 .#
b11 2
b11 1"
b11 D#
b11 K#
1[
1O
b1111 #
1!
#160
0!
#165
1$
b11 >
b11 {"
b11 X#
1J
1+
b10 }
b10 8"
b10 t"
0{
0d
0^
1R
b1000010000000001 A
b1000010000000001 o"
b1000010000000001 U#
b1100010000 ?
b1100010000 m"
b1100010000 W#
b10 D
b10 q"
b10 S#
b100 @
b100 n"
b100 V#
b11 B
b11 p"
b11 T#
b11 -
b11 ."
b11 h"
b11 z"
b11 M#
b10 /
b10 0"
b10 i"
b10 y"
b10 L#
b0 I
b0 7"
b0 s"
b0 v"
b100 5
b100 j"
b100 x"
b110011 9
b110011 6"
b110011 k"
b10100 8
b10100 ;"
b10100 N"
b10000 ;
b10000 <"
b10000 O"
b10000 L
b10000 >"
b10000 Q"
b10000 Y
b10000 X"
b10000 ##
b1100010000001000110011 =
b1100010000001000110011 l"
b1100010000001000110011 /#
b10000 #
1!
#170
0!
#175
0$
0J
0+
b10100 &
b10100 F#
b10100 N
b10100 ,"
0z
0c
0]
0Q
b10100 7
b10100 &"
b10100 F"
b10100 ?#
b10000 :
b10000 '"
b10000 E"
b10000 K
b10000 )"
b10000 C"
b10100 U
b10100 |"
b10100 P#
b10100 W
b10100 }"
b10100 O#
b10001 #
1!
#180
0!
#185
0(
b101000 y
b101000 @"
b101000 Y"
b101000 ]"
b10100 U"
b10100 ["
b10100 S"
b10100 \"
b1 p
b1 5"
b1 K"
b1 d"
b10100 *
b10100 ?"
b10100 L"
b10100 R"
b10100 e"
b10100 T"
b10100 `"
b10100 6
b10100 C#
b10100 Z#
0b
0\
0P
b0 H
b0 ""
b0 ="
b0 &#
b100 4
b100 3"
b100 :"
b100 )#
b11 ,
b11 -"
b11 +#
b10 .
b10 /"
b10 *#
b10011 ;
b10011 <"
b10011 O"
b10011 L
b10011 >"
b10011 Q"
b11 C
b11 P"
b11 (#
b10100 T
b10100 V"
b10100 g"
b10100 %#
b10100 V
b10100 W"
b10100 b"
b10100 $#
b10 |
b10 #"
b10 !#
1Q
b10100 Z
b10100 -#
b10100 2#
b10100 G#
b10010 #
1!
#190
0!
#195
b0 )
b0 M"
b0 a"
b0 f"
b0 N#
b0 \#
b0 1
b0 9#
b0 <#
b0 A#
b0 p
b0 5"
b0 K"
b0 d"
b1000000001100100000001010110011 <
b1000000001100100000001010110011 ,#
b1000000001100100000001010110011 5#
b10100 X
b10100 ~"
b10100 .#
b0 G
b0 ("
b0 D"
0'
b10011 :
b10011 '"
b10011 E"
b10011 K
b10011 )"
b10011 C"
b100 3
b100 2"
b100 G"
b100 @#
b10100 S
b10100 B"
b10100 8#
b10100 ;#
b101000 x
b101000 *"
b101000 A"
b101000 I"
b101000 ^"
b101000 c"
b101000 7#
b101000 :#
b101000 >#
1P
0[
0O
b10011 #
1!
#200
0!
#205
b101000 )
b101000 M"
b101000 a"
b101000 f"
b101000 N#
b101000 \#
b10000000011 >
b10000000011 {"
b10000000011 X#
b10000011000000001 A
b10000011000000001 o"
b10000011000000001 U#
b1000000001100100000 ?
b1000000001100100000 m"
b1000000001100100000 W#
b11000000010 D
b11000000010 q"
b11000000010 S#
b10000000101 @
b10000000101 n"
b10000000101 V#
b10000000011 B
b10000000011 p"
b10000000011 T#
b100000 F
b100000 r"
b100000 w"
b100 /
b100 0"
b100 i"
b100 y"
b100 L#
b101 5
b101 j"
b101 x"
b100 2
b100 1"
b100 D#
b100 K#
b0 0
b0 E#
b0 [#
b101000 w
b101000 B#
b101000 Y#
1O
b11000 8
b11000 ;"
b11000 N"
b10111 ;
b10111 <"
b10111 O"
b10111 L
b10111 >"
b10111 Q"
b10100 Y
b10100 X"
b10100 ##
b1000000001100100000001010110011 =
b1000000001100100000001010110011 l"
b1000000001100100000001010110011 /#
b10100 #
1!
#210
0!
#215
b10100 y
b10100 @"
b10100 Y"
b10100 ]"
b101000 U"
b101000 ["
b1 ~
b1 $"
b1 H"
b1 Z"
b10 q
b10 4"
b10 J"
b10 _"
b101000 T"
b101000 `"
b11000 &
b11000 F#
b11000 N
b11000 ,"
b100000 E
b100000 !"
b100000 '#
b101 4
b101 3"
b101 :"
b101 )#
b100 .
b100 /"
b100 *#
b10000010111 ;
b10000010111 <"
b10000010111 O"
b10000010111 L
b10000010111 >"
b10000010111 Q"
b10000000011 C
b10000000011 P"
b10000000011 (#
b0 V
b0 W"
b0 b"
b0 $#
b11000 7
b11000 &"
b11000 F"
b11000 ?#
b10111 :
b10111 '"
b10111 E"
b10111 K
b10111 )"
b10111 C"
b0 W
b0 }"
b0 O#
b10101 #
1!
#220
0!
